{
    "next": true,
    "data": [
        {
            "content": "木下杢太郎『唐草表紙』序"
        },
        {
            "content": "教育と文芸"
        },
        {
            "content": "京に着ける夕"
        },
        {
            "content": "虚子君へ"
        },
        {
            "content": "草枕"
        },
        {
            "content": "虞美人草"
        },
        {
            "content": "ケーベル先生"
        },
        {
            "content": "ケーベル先生の告別"
        },
        {
            "content": "現代日本の開化"
        },
        {
            "content": "行人"
        }
    ]
}